…
3つの主要なデータセットがあります。最初は `taylor_album_songs` で、
これはテイラーの公式スタジオアルバムに収録されたすべての曲の歌詞と
Spotify APIからのオーディオ特徴を含みます。特に、アルバムから
別途リリースされたシングル（例：*Only the Young*、*Christmas Tree Farm*、
など）や、テイラー所有の代替版があるテイラー所有でないアルバム（例：
*Fearless* は *Fearless (Taylor’s Version)* に置き換えられています）は除外されています。
私たちはアーティストが自身の作品を所有することを支持します。


``` r
taylor_album_songs
#> # A tibble: 240 × 29
#>    album_name   ep    album_release track_number track_name     artist featuring
#>    <chr>        <lgl> <date>               <int> <chr>          <chr>  <chr>    
#>  1 Taylor Swift FALSE 2006-10-24               1 Tim McGraw     Taylo… <NA>     
#>  2 Taylor Swift FALSE 2006-10-24               2 Picture To Bu… Taylo… <NA>     
#>  3 Taylor Swift FALSE 2006-10-24               3 Teardrops On … Taylo… <NA>     
#>  4 Taylor Swift FALSE 2006-10-24               4 A Place In Th… Taylo… <NA>     
#>  5 Taylor Swift FALSE 2006-10-24               5 Cold As You    Taylo… <NA>     
#>  6 Taylor Swift FALSE 2006-10-24               6 The Outside    Taylo… <NA>     
#>  7 Taylor Swift FALSE 2006-10-24               7 Tied Together… Taylo… <NA>     
#>  8 Taylor Swift FALSE 2006-10-24               8 Stay Beautiful Taylo… <NA>     
#>  9 Taylor Swift FALSE 2006-10-24               9 Should've Sai… Taylo… <NA>     
#> 10 Taylor Swift FALSE 2006-10-24              10 Mary's Song (… Taylo… <NA>     
#> # ℹ 230 more rows
#> # ℹ 22 more variables: bonus_track <lgl>, promotional_release <date>,
#> #   single_release <date>, track_release <date>, danceability <dbl>,
#> #   energy <dbl>, key <int>, loudness <dbl>, mode <int>, speechiness <dbl>,
#> #   acousticness <dbl>, instrumentalness <dbl>, liveness <dbl>, valence <dbl>,
#> #   tempo <dbl>, time_signature <int>, duration_ms <int>, explicit <lgl>,
#> #   key_name <chr>, mode_name <chr>, key_mode <chr>, lyrics <list>
```

`taylor_all_songs` を使うと、テイラーの全ディスコグラフィにアクセスできます。これには
`taylor_album_songs` にあるすべての曲に加え、EP、個別のシングル、
および *Taylor’s Version* として再リリースされたアルバムのオリジナル版が含まれます。


``` r
taylor_all_songs
#> # A tibble: 364 × 29
#>    album_name   ep    album_release track_number track_name     artist featuring
#>    <chr>        <lgl> <date>               <int> <chr>          <chr>  <chr>    
#>  1 Taylor Swift FALSE 2006-10-24               1 Tim McGraw     Taylo… <NA>     
#>  2 Taylor Swift FALSE 2006-10-24               2 Picture To Bu… Taylo… <NA>     
#>  3 Taylor Swift FALSE 2006-10-24               3 Teardrops On … Taylo… <NA>     
#>  4 Taylor Swift FALSE 2006-10-24               4 A Place In Th… Taylo… <NA>     
#>  5 Taylor Swift FALSE 2006-10-24               5 Cold As You    Taylo… <NA>     
#>  6 Taylor Swift FALSE 2006-10-24               6 The Outside    Taylo… <NA>     
#>  7 Taylor Swift FALSE 2006-10-24               7 Tied Together… Taylo… <NA>     
#>  8 Taylor Swift FALSE 2006-10-24               8 Stay Beautiful Taylo… <NA>     
#>  9 Taylor Swift FALSE 2006-10-24               9 Should've Sai… Taylo… <NA>     
#> 10 Taylor Swift FALSE 2006-10-24              10 Mary's Song (… Taylo… <NA>     
#> # ℹ 354 more rows
#> # ℹ 22 more variables: bonus_track <lgl>, promotional_release <date>,
#> #   single_release <date>, track_release <date>, danceability <dbl>,
#> #   energy <dbl>, key <int>, loudness <dbl>, mode <int>, speechiness <dbl>,
#> #   acousticness <dbl>, instrumentalness <dbl>, liveness <dbl>, valence <dbl>,
#> #   tempo <dbl>, time_signature <int>, duration_ms <int>, explicit <lgl>,
#> #   key_name <chr>, mode_name <chr>, key_mode <chr>, lyrics <list>
```
…
