…
세 가지 주요 데이터 세트가 있습니다. 첫 번째는 `taylor_album_songs`로,
테일러 공식 스튜디오 앨범의 모든 곡에 대한 가사와 Spotify API의 오디오 특징을 포함합니다.
특히, 이는 앨범과 별도로 발매된 싱글(예: *Only the Young*, *Christmas Tree Farm* 등)과
테일러 소유의 대체 버전이 있는 비테일러 소유 앨범(예: *Fearless*는 *Fearless (Taylor’s
Version)* 대신 제외됨)을 제외합니다. 우리는 아티스트가 자신의 작품을 소유하는 것을 지원합니다.




``` r
taylor_album_songs
#> # A tibble: 240 × 29
#>    album_name   ep    album_release track_number track_name     artist featuring
#>    <chr>        <lgl> <date>               <int> <chr>          <chr>  <chr>    
#>  1 Taylor Swift FALSE 2006-10-24               1 Tim McGraw     Taylo… <NA>     
#>  2 Taylor Swift FALSE 2006-10-24               2 Picture To Bu… Taylo… <NA>     
#>  3 Taylor Swift FALSE 2006-10-24               3 Teardrops On … Taylo… <NA>     
#>  4 Taylor Swift FALSE 2006-10-24               4 A Place In Th… Taylo… <NA>     
#>  5 Taylor Swift FALSE 2006-10-24               5 Cold As You    Taylo… <NA>     
#>  6 Taylor Swift FALSE 2006-10-24               6 The Outside    Taylo… <NA>     
#>  7 Taylor Swift FALSE 2006-10-24               7 Tied Together… Taylo… <NA>     
#>  8 Taylor Swift FALSE 2006-10-24               8 Stay Beautiful Taylo… <NA>     
#>  9 Taylor Swift FALSE 2006-10-24               9 Should've Sai… Taylo… <NA>     
#> 10 Taylor Swift FALSE 2006-10-24              10 Mary's Song (… Taylo… <NA>     
#> # ℹ 230 more rows
#> # ℹ 22 more variables: bonus_track <lgl>, promotional_release <date>,
#> #   single_release <date>, track_release <date>, danceability <dbl>,
#> #   energy <dbl>, key <int>, loudness <dbl>, mode <int>, speechiness <dbl>,
#> #   acousticness <dbl>, instrumentalness <dbl>, liveness <dbl>, valence <dbl>,
#> #   tempo <dbl>, time_signature <int>, duration_ms <int>, explicit <lgl>,
#> #   key_name <chr>, mode_name <chr>, key_mode <chr>, lyrics <list>
```
`taylor_all_songs`를 사용하면 Taylor의 전체 디스코그래피에 접근할 수 있습니다.  
여기에는 `taylor_album_songs`의 모든 노래뿐만 아니라 EP, 개별 싱글, 그리고 *Taylor’s Version*으로 재발매된 앨범의 원본 버전도 포함됩니다.




``` r
taylor_all_songs
#> # A tibble: 364 × 29
#>    album_name   ep    album_release track_number track_name     artist featuring
#>    <chr>        <lgl> <date>               <int> <chr>          <chr>  <chr>    
#>  1 Taylor Swift FALSE 2006-10-24               1 Tim McGraw     Taylo… <NA>     
#>  2 Taylor Swift FALSE 2006-10-24               2 Picture To Bu… Taylo… <NA>     
#>  3 Taylor Swift FALSE 2006-10-24               3 Teardrops On … Taylo… <NA>     
#>  4 Taylor Swift FALSE 2006-10-24               4 A Place In Th… Taylo… <NA>     
#>  5 Taylor Swift FALSE 2006-10-24               5 Cold As You    Taylo… <NA>     
#>  6 Taylor Swift FALSE 2006-10-24               6 The Outside    Taylo… <NA>     
#>  7 Taylor Swift FALSE 2006-10-24               7 Tied Together… Taylo… <NA>     
#>  8 Taylor Swift FALSE 2006-10-24               8 Stay Beautiful Taylo… <NA>     
#>  9 Taylor Swift FALSE 2006-10-24               9 Should've Sai… Taylo… <NA>     
#> 10 Taylor Swift FALSE 2006-10-24              10 Mary's Song (… Taylo… <NA>     
#> # ℹ 354 more rows
#> # ℹ 22 more variables: bonus_track <lgl>, promotional_release <date>,
#> #   single_release <date>, track_release <date>, danceability <dbl>,
#> #   energy <dbl>, key <int>, loudness <dbl>, mode <int>, speechiness <dbl>,
#> #   acousticness <dbl>, instrumentalness <dbl>, liveness <dbl>, valence <dbl>,
#> #   tempo <dbl>, time_signature <int>, duration_ms <int>, explicit <lgl>,
#> #   key_name <chr>, mode_name <chr>, key_mode <chr>, lyrics <list>
```
…
